mc20_13TeV.345342.PowhegPy8EG_NNLOPS_nnlo_30_ggH125_bb.deriv.DAOD_PHYS.e5739_s3681_r13144_p5658
mc20_13TeV.345342.PowhegPy8EG_NNLOPS_nnlo_30_ggH125_bb.deriv.DAOD_PHYS.e5739_s3681_r13167_p5658
mc20_13TeV.345342.PowhegPy8EG_NNLOPS_nnlo_30_ggH125_bb.deriv.DAOD_PHYS.e7441_s3681_r13145_p5658
mc20_13TeV.309450.PowhegPy8EG_NNLOPS_nnlo_30_ggH125_bb_kt200.deriv.DAOD_PHYS.e6281_s3681_r13144_p5658
mc20_13TeV.309450.PowhegPy8EG_NNLOPS_nnlo_30_ggH125_bb_kt200.deriv.DAOD_PHYS.e6281_s3681_r13167_p5658
mc20_13TeV.309450.PowhegPy8EG_NNLOPS_nnlo_30_ggH125_bb_kt200.deriv.DAOD_PHYS.e7338_s3681_r13145_p5658
mc20_13TeV.345949.PowhegPythia8EvtGen_NNPDF30_AZNLOCTEQ6L1_VBFH125_bb.deriv.DAOD_PHYS.e7252_s3681_r13144_p5658
mc20_13TeV.345949.PowhegPythia8EvtGen_NNPDF30_AZNLOCTEQ6L1_VBFH125_bb.deriv.DAOD_PHYS.e7252_s3681_r13145_p5658
mc20_13TeV.345949.PowhegPythia8EvtGen_NNPDF30_AZNLOCTEQ6L1_VBFH125_bb.deriv.DAOD_PHYS.e7252_s3681_r13167_p5658
mc20_13TeV.346343.PhPy8EG_A14NNPDF23_NNPDF30ME_ttH125_allhad.deriv.DAOD_PHYS.e7148_s3681_r13144_p5658
mc20_13TeV.346343.PhPy8EG_A14NNPDF23_NNPDF30ME_ttH125_allhad.deriv.DAOD_PHYS.e7148_s3681_r13145_p5658
mc20_13TeV.346343.PhPy8EG_A14NNPDF23_NNPDF30ME_ttH125_allhad.deriv.DAOD_PHYS.e7148_s3681_r13167_p5658
mc20_13TeV.346344.PhPy8EG_A14NNPDF23_NNPDF30ME_ttH125_semilep.deriv.DAOD_PHYS.e7148_s3681_r13144_p5658
mc20_13TeV.346344.PhPy8EG_A14NNPDF23_NNPDF30ME_ttH125_semilep.deriv.DAOD_PHYS.e7148_s3681_r13145_p5658
mc20_13TeV.346344.PhPy8EG_A14NNPDF23_NNPDF30ME_ttH125_semilep.deriv.DAOD_PHYS.e7148_s3681_r13167_p5658
mc20_13TeV.346345.PhPy8EG_A14NNPDF23_NNPDF30ME_ttH125_dilep.deriv.DAOD_PHYS.e7148_s3681_r13144_p5658
mc20_13TeV.346345.PhPy8EG_A14NNPDF23_NNPDF30ME_ttH125_dilep.deriv.DAOD_PHYS.e7148_s3681_r13145_p5658
mc20_13TeV.346345.PhPy8EG_A14NNPDF23_NNPDF30ME_ttH125_dilep.deriv.DAOD_PHYS.e7148_s3681_r13167_p5658
mc20_13TeV.346639.PowhegPythia8EvtGen_NNPDF3_AZNLO_WmH125J_MINLO_qqbb_VpT.deriv.DAOD_PHYS.e7745_s3681_r13144_p5658
mc20_13TeV.346639.PowhegPythia8EvtGen_NNPDF3_AZNLO_WmH125J_MINLO_qqbb_VpT.deriv.DAOD_PHYS.e7745_s3681_r13145_p5658
mc20_13TeV.346639.PowhegPythia8EvtGen_NNPDF3_AZNLO_WmH125J_MINLO_qqbb_VpT.deriv.DAOD_PHYS.e7745_s3681_r13167_p5658
mc20_13TeV.346640.PowhegPythia8EvtGen_NNPDF3_AZNLO_WpH125J_MINLO_qqbb_VpT.deriv.DAOD_PHYS.e7745_s3681_r13144_p5658
mc20_13TeV.346640.PowhegPythia8EvtGen_NNPDF3_AZNLO_WpH125J_MINLO_qqbb_VpT.deriv.DAOD_PHYS.e7745_s3681_r13145_p5658
mc20_13TeV.346640.PowhegPythia8EvtGen_NNPDF3_AZNLO_WpH125J_MINLO_qqbb_VpT.deriv.DAOD_PHYS.e7745_s3681_r13167_p5658
mc20_13TeV.346641.PowhegPythia8EvtGen_NNPDF3_AZNLO_ZH125J_MINLO_qqbb_VpT.deriv.DAOD_PHYS.e7745_s3681_r13144_p5658
mc20_13TeV.346641.PowhegPythia8EvtGen_NNPDF3_AZNLO_ZH125J_MINLO_qqbb_VpT.deriv.DAOD_PHYS.e7745_s3681_r13145_p5658
mc20_13TeV.346641.PowhegPythia8EvtGen_NNPDF3_AZNLO_ZH125J_MINLO_qqbb_VpT.deriv.DAOD_PHYS.e7745_s3681_r13167_p5658
