mc20_13TeV.502970.MGPy8EG_hh_bbbb_vbf_novhh_l1cvv1cv1.deriv.DAOD_PHYS.e8263_s3681_r13144_p5658
mc20_13TeV.502970.MGPy8EG_hh_bbbb_vbf_novhh_l1cvv1cv1.deriv.DAOD_PHYS.e8263_s3681_r13145_p5658
mc20_13TeV.502970.MGPy8EG_hh_bbbb_vbf_novhh_l1cvv1cv1.deriv.DAOD_PHYS.e8263_s3681_r13167_p5658
mc20_13TeV.502971.MGPy8EG_hh_bbbb_vbf_novhh_l1cvv0cv1.deriv.DAOD_PHYS.e8263_s3681_r13144_p5658
mc20_13TeV.502971.MGPy8EG_hh_bbbb_vbf_novhh_l1cvv0cv1.deriv.DAOD_PHYS.e8263_s3681_r13145_p5658
mc20_13TeV.502971.MGPy8EG_hh_bbbb_vbf_novhh_l1cvv0cv1.deriv.DAOD_PHYS.e8263_s3681_r13167_p5658

